{
    "basic context-block functions with context argument-00": {
        "data": {
            "awesome": {
                "php": "function($context, $options) { return $options->fn($context); }"
            }
        }
    },
    "basic context-block functions without context argument-00": {
        "data": {
            "awesome": {
                "php": "function($options) { return $options->fn($options->scope); }"
            }
        }
    },
    "basic context-compiling with a string context-00": {
        "note": "PHP strings do not have properties",
        "helpers": {
            "length": {
                "!code": true,
                "php": "function($options) { return strlen($options->scope); }"
            }
        }
    },
    "basic context-depthed block functions with context argument-00": {
        "data": {
            "awesome": {
                "php": "function($context, $options) { return $options->fn($context); }"
            }
        }
    },
    "basic context-depthed block functions without context argument-00": {
        "data": {
            "awesome": {
                "php": "function($context) { return $context; }"
            }
        }
    },
    "basic context-depthed functions with context argument-00": {
        "data": {
            "awesome": {
                "php": "function($context) { return $context; }"
            }
        }
    },
    "basic context-functions returning safestrings shouldn't be escaped-00": {
        "data": {
            "awesome": {
                "php": "function () { return new SafeString('&\\'\\\\<>'); }"
            }
        }
    },
    "basic context-functions with context argument-00": {
        "data": {
            "awesome": {
                "php": "function($context) { return $context; }"
            }
        }
    },
    "basic context-functions-00": {
        "data": {
            "awesome": {
                "php": "function () { return \"Awesome\"; }"
            }
        }
    },
    "basic context-functions-01": {
        "data": {
            "awesome": {
                "php": "function($options) { return $options->scope['more']; }"
            }
        }
    },
    "basic context-pass number literals-04": {
        "data": {
            "12.34": {
                "php": "function($arg) { return 'bar' . $arg; }"
            }
        }
    },
    "basic context-pathed block functions without context argument-00": {
        "data": {
            "foo": {
                "awesome": {
                    "php": "function($scope) { return $scope; }"
                }
            }
        }
    },
    "basic context-pathed functions with context argument-00": {
        "data": {
            "bar": {
                "awesome": {
                    "php": "function($context) { return $context; }"
                }
            }
        }
    },
    "basic context-should handle literals in subexpression-00": {
        "data": {
            "false": {
                "php": "function() { return 'bar'; }"
            }
        },
        "helpers": {
            "foo": {
                "php": "function($arg) {\n        return $arg;\n      }"
            }
        }
    },
    "basic context-should handle undefined and null-00": {
        "data": {
            "awesome": {
                "php": "function ($_undefined, $_null, $options) {\n            return ($_undefined === null ? 'true' : 'false') . ' ' . ($_null === null ? 'true' : 'false') . ' ' . gettype($options);\n          }"
            }
        }
    },
    "basic context-should handle undefined and null-01": {
        "data": {
            "undefined": {
                "php": "function() {\n            return 'undefined!';\n          }"
            }
        }
    },
    "basic context-should handle undefined and null-02": {
        "data": {
            "null": {
                "php": "function() {\n            return 'null!';\n          }"
            }
        }
    },
    "basic context-this keyword in helpers-00": {
        "helpers": {
            "foo": {
                "php": "function($value) { return 'bar ' . $value; }"
            }
        }
    },
    "basic context-this keyword in helpers-01": {
        "helpers": {
            "foo": {
                "php": "function($value) { return 'bar ' . $value; }"
            }
        }
    },
    "basic context-this keyword nested inside helpers param-01": {
        "data": {
            "foo": {
                "php": "function($value) { return $value; }"
            }
        }
    },
    "basic context-this keyword nested inside helpers param-02": {
        "data": {
            "foo": {
                "php": "function($value) { return $value; }"
            }
        }
    }
}