{
    "#each-data passed to helpers-00": {
        "helpers": {
            "detectDataInsideEach": {
                "!code": true,
                "javascript": "function(options) { return options.data && options.data.exclaim; }",
                "php": "function($options) { return isset($options['data']['exclaim'])? $options['data']['exclaim'] : ''; }"
            }
        }
    },
    "#each-each with an object and @key-00": {
        "expected": "2. GOODBYE! &lt;b&gt;#1&lt;\/b&gt;. goodbye! cruel world!",
        "globalHelpers": {
            "detectDataInsideEach": {
                "php": "function($options) {\n        return $options['data'] && $options['data']['exclaim'];\n      }"
            }
        }
    },
    "#each-each with an object and @key-01": null,
    "#each-each with an object and @key-02": {
        "globalHelpers": {
            "detectDataInsideEach": {
                "php": "function($options) {\n        return $options['data'] && $options['data']['exclaim'];\n      }"
            }
        }
    },
    "#each-each with function argument-00": {
        "data": {
            "goodbyes": {
                "php": "function() { return array(array(\"text\" => \"goodbye\"), array(\"text\" => \"Goodbye\"), array(\"text\" => \"GOODBYE\")); }"
            }
        },
        "globalHelpers": {
            "detectDataInsideEach": {
                "php": "function($options) {\n        return $options['data'] && $options['data']['exclaim'];\n      }"
            }
        }
    },
    "#each-each with function argument-01": {
        "globalHelpers": {
            "detectDataInsideEach": {
                "php": "function($options) {\n        return $options['data'] && $options['data']['exclaim'];\n      }"
            }
        }
    },
    "#each-each without context-00": {
        "globalHelpers": {
            "detectDataInsideEach": {
                "php": "function($options) {\n        return $options['data'] && $options['data']['exclaim'];\n      }"
            }
        }
    },
    "#each-each without data-00": {
        "globalHelpers": {
            "detectDataInsideEach": {
                "php": "function($options) {\n        return $options['data'] && $options['data']['exclaim'];\n      }"
            }
        }
    },
    "#each-each without data-01": {
        "globalHelpers": {
            "detectDataInsideEach": {
                "php": "function($options) {\n        return $options['data'] && $options['data']['exclaim'];\n      }"
            }
        }
    },
    "#each-each-00": {
        "globalHelpers": {
            "detectDataInsideEach": {
                "php": "function($options) {\n        return $options['data'] && $options['data']['exclaim'];\n      }"
            }
        }
    },
    "#each-each-01": {
        "globalHelpers": {
            "detectDataInsideEach": {
                "php": "function($options) {\n        return $options['data'] && $options['data']['exclaim'];\n      }"
            }
        }
    },
    "#if-if with function argument-00": {
        "data": {
            "goodbye": {
                "php": "function() { return true; }"
            }
        }
    },
    "#if-if with function argument-01": {
        "data": {
            "goodbye": {
                "php": "function($scope) { return $scope['world']; }"
            }
        }
    },
    "#if-if with function argument-02": {
        "data": {
            "goodbye": {
                "php": "function() { return false; }"
            }
        }
    },
    "#if-if with function argument-03": {
        "data": {
            "goodbye": {
                "php": "function($scope) { return isset($scope['foo']) ? $scope['foo'] : null; }"
            }
        }
    },
    "#log-should call logger at data level-00": null,
    "#log-should call logger at data level-01": null,
    "#log-should call logger at data level-02": null,
    "#log-should call logger at default level-00": null,
    "#log-should call logger at default level-01": null,
    "#log-should call logger at default level-02": null,
    "#log-should handle hash log levels-00": null,
    "#log-should handle hash log levels-01": null,
    "#log-should handle hash log levels-02": null,
    "#log-should handle hash log levels-03": null,
    "#log-should handle missing logger-00": null,
    "#log-should handle missing logger-01": null,
    "#log-should handle string log levels-00": null,
    "#log-should handle string log levels-01": null,
    "#log-should handle string log levels-02": null,
    "#log-should handle string log levels-03": null,
    "#log-should log at data level-00": null,
    "#log-should log at data level-01": null,
    "#log-should output to info-00": null,
    "#log-should output to info-01": null,
    "#log-should pass multiple log arguments-00": null,
    "#log-should pass multiple log arguments-01": null,
    "#with-with with function argument-00": {
        "data": {
            "person": {
                "php": "function() { return array(\"first\" => \"Alan\", \"last\" => \"Johnson\"); }"
            }
        }
    }
}